{
    "server": {
        "https": "%https.ip%/admin",
        "http": "%http.ip%"
    },
    "user": {
        "username": "admin@francetv.fr",
        "password": "admin"
    },
    "tenantConfigs": "/_system/config/publisher/configs/publisher.json",
    "app": {
        "RXT_MANAGER": "rxt_manager",
        "ROUTE_MANAGER": "route_manager",
        "MODEL_MANAGER": "model_manager"
    },
    "lifeCycleBehaviour": {

        "SampleLifeCycle2": {

            "onAttach": {
                "action": "Promote"
            }
        },
        "MobileAppLifeCycle":{
            "onAttach":{
                "action":"Create"
            }
        }
    },

    "paths": {
        "ASSET_EXT_PATH": "/assets",
        "ASSET_DEFAULT_PATH": "/assets/default",
        "ASSETS_EXT_PATH": "/assets",
        "ASSETS_DEFAULT_PATH": "/assets/default",
        "RXT_EXTENSION_PATH": "/config/ext/"
    },

    "urls": {
        "ASSET": "/asset",
        "ASSETS": "/assets"
    },

    "router": {
        "RENDERER": "/modules/router.caramel-renderer.js"
    },
    "ssoConfiguration": {
        "enabled": false,
        "issuer": "publisher",
        "identityProviderURL": "%https.ip%/sso/samlsso.jag",
        "keyStorePassword": "wso2carbon",
        "identityAlias": "ftvstore-dev.francetv.fr",
        "responseSigningEnabled": "true",
        "publisherAcs": "%https.ip%/publisher/sso",
        "keyStoreName": "/repository/resources/security/wso2carbon.jks"
    },
    "constants" :{
    "assetCreatedDateLength" : 20
    }

}
